{"words":[
    {"res":["arrive","رس"]},
    {"pors":["ask","پرس"]},
    {"tawaan":["to be able","توان"]},
    {"zan":["beat", "زن"]},
    {"shav":["become","شو"]},
    {"band":["bind","بند"]},
    {"aavar":["bring","آور"]},
    {"bor":["bring","بر"]},
    {"saaz":["build"," ساز"]},
    {"suz":["burn","سوز"]}
]}